<?xml version="1.0" encoding="utf-8"?>
<!-- Generator: Adobe Illustrator 16.0.0, SVG Export Plug-In . SVG Version: 6.00 Build 0)  -->
<!DOCTYPE svg PUBLIC "-//W3C//DTD SVG 1.0//EN" "http://www.w3.org/TR/2001/REC-SVG-20010904/DTD/svg10.dtd">
<svg version="1.0" id="レイヤー_1" xmlns="http://www.w3.org/2000/svg" xmlns:xlink="http://www.w3.org/1999/xlink" x="0px"
	 y="0px" width="272.62px" height="20.417px" viewBox="0 0 272.62 20.417" enable-background="new 0 0 272.62 20.417"
	 xml:space="preserve">
<g>
	<path fill="#FFFFFF" d="M0.205,19.173c0.814-0.132,1.388-0.43,1.721-0.892c0.333-0.463,0.745-1.596,1.235-3.399L6.458,2.733
		C6.477,2.676,6.401,2.509,6.23,2.23C6.059,1.952,5.885,1.751,5.709,1.628C5.534,1.506,5.328,1.416,5.092,1.359
		S4.525,1.246,4.1,1.189V0.722h4.57l5.832,14.333l0.097,0.016l2.827-11.063c0.083-0.331,0.148-0.628,0.194-0.892
		s0.069-0.462,0.069-0.595c0-0.529-0.222-0.892-0.666-1.09c-0.269-0.123-0.717-0.203-1.346-0.241V0.722h5.662v0.467
		c-0.86,0.189-1.441,0.496-1.742,0.92s-0.706,1.548-1.214,3.37L14.99,17.87c-0.108,0.405-0.187,0.7-0.236,0.886
		c-0.05,0.184-0.165,0.639-0.345,1.365h-0.533L7.421,4.305H7.277L4.119,16.355c-0.056,0.217-0.114,0.477-0.174,0.778
		s-0.09,0.543-0.09,0.722c0,0.539,0.24,0.906,0.722,1.105c0.277,0.122,0.708,0.193,1.291,0.212v0.468H0.205V19.173z"/>
	<path fill="#FFFFFF" d="M20.114,19.173c0.666-0.057,1.124-0.179,1.374-0.368c0.389-0.283,0.708-0.873,0.958-1.77l3.482-12.83
		c0.111-0.425,0.197-0.776,0.257-1.055c0.06-0.279,0.09-0.517,0.09-0.715c0-0.453-0.169-0.77-0.507-0.949
		c-0.337-0.179-0.909-0.278-1.713-0.297V0.722h14.142L37.308,5.14l-0.583-0.042c0.027-0.283,0.046-0.555,0.055-0.814
		c0.009-0.26,0.014-0.356,0.014-0.291c0.018-0.954-0.312-1.579-0.993-1.876c-0.68-0.297-2.08-0.446-4.199-0.446
		c-0.972,0-1.583,0.046-1.833,0.139c-0.25,0.092-0.421,0.296-0.514,0.611l-1.847,6.755c2.498-0.085,4-0.246,4.506-0.481
		c0.507-0.236,1.046-1.015,1.618-2.336l0.527,0.127l-1.943,6.712l-0.555-0.127c0.093-0.566,0.148-0.911,0.167-1.034
		s0.028-0.26,0.028-0.411c0-0.614-0.214-1.013-0.643-1.196c-0.429-0.185-1.214-0.276-2.355-0.276h-1.616l-1.77,6.471
		c-0.056,0.198-0.1,0.382-0.132,0.552c-0.033,0.17-0.049,0.346-0.049,0.524c0,0.302,0.079,0.528,0.236,0.68
		c0.287,0.265,0.851,0.396,1.693,0.396c2.544,0,4.365-0.278,5.461-0.835c1.096-0.558,2.19-1.634,3.282-3.229l0.458,0.241
		l-1.776,4.688H20.114V19.173z"/>
	<path fill="#FFFFFF" d="M47.83,0.722v0.467c-0.879,0.047-1.439,0.189-1.679,0.425C45.91,1.85,45.79,2.275,45.79,2.889
		c0,0.094,0.002,0.182,0.007,0.262c0.004,0.081,0.012,0.177,0.021,0.291l1.177,11.371h0.098l4.842-9.981l-0.27-1.97
		c-0.102-0.727-0.285-1.182-0.548-1.367c-0.264-0.184-0.793-0.285-1.589-0.304V0.722h6.763v0.467
		c-0.647,0.066-1.092,0.165-1.332,0.297c-0.407,0.227-0.611,0.633-0.611,1.219c0,0.066,0.007,0.182,0.021,0.347
		s0.396,4.088,1.146,11.768h0.098l5.237-10.544c0.139-0.273,0.259-0.538,0.361-0.793c0.157-0.434,0.236-0.798,0.236-1.091
		c0-0.51-0.189-0.85-0.569-1.02c-0.231-0.104-0.657-0.165-1.276-0.184V0.722h5.274v0.467c-0.491,0.132-0.842,0.288-1.055,0.467
		c-0.324,0.283-0.689,0.821-1.096,1.614l-8.625,16.907h-0.555L52.116,7.01l-0.159-0.038l-6.283,13.206h-0.551L43.386,5.183
		c-0.222-1.926-0.43-3.061-0.625-3.406c-0.194-0.344-0.745-0.54-1.651-0.587V0.722H47.83z"/>
	<path fill="#FFFFFF" d="M86.502,0.694c0.962,0.227,1.545,0.34,1.749,0.34c0.342,0,0.583-0.057,0.722-0.17s0.254-0.274,0.347-0.481
		h0.583L88.861,6.16l-0.5-0.071c-0.102-1.142-0.352-2.062-0.749-2.761c-0.731-1.293-1.938-1.94-3.622-1.94
		c-2.59,0-4.723,1.322-6.397,3.965c-1.461,2.294-2.192,4.781-2.192,7.462c0,1.992,0.444,3.498,1.332,4.517
		c0.888,1.02,2.031,1.529,3.428,1.529c1.443,0,2.766-0.359,3.969-1.076c0.712-0.434,1.642-1.213,2.79-2.336l0.458,0.41
		c-1.037,1.34-2.209,2.396-3.518,3.164c-1.309,0.77-2.75,1.154-4.323,1.154c-2.368,0-4.186-0.764-5.454-2.293
		s-1.901-3.314-1.901-5.353c0-2.926,1.059-5.626,3.178-8.1c2.322-2.719,5.144-4.078,8.465-4.078
		C84.647,0.354,85.54,0.467,86.502,0.694z"/>
	<path fill="#FFFFFF" d="M108.16,2.336c1.23,1.322,1.846,2.94,1.846,4.857c0,3.379-1.23,6.396-3.691,9.049
		c-2.424,2.596-5.111,3.894-8.062,3.894c-1.869,0-3.418-0.595-4.649-1.784s-1.845-2.884-1.845-5.083
		c0-3.125,1.216-6.056,3.649-8.793c2.442-2.747,5.079-4.121,7.91-4.121C105.315,0.354,106.93,1.015,108.16,2.336z M104.941,13.919
		c1.396-2.804,2.095-5.404,2.095-7.802c0-1.482-0.314-2.641-0.944-3.476c-0.629-0.836-1.577-1.253-2.845-1.253
		c-2.442,0-4.524,1.666-6.245,4.999c-1.452,2.804-2.179,5.508-2.179,8.114c0,1.529,0.329,2.686,0.985,3.469
		c0.657,0.784,1.573,1.176,2.748,1.176C101.083,19.145,103.21,17.402,104.941,13.919z"/>
	<path fill="#FFFFFF" d="M110.238,19.173c0.666-0.057,1.124-0.179,1.374-0.368c0.389-0.283,0.708-0.873,0.958-1.77l3.482-12.83
		c0.13-0.519,0.217-0.885,0.264-1.098c0.046-0.212,0.07-0.422,0.07-0.63c0-0.472-0.16-0.8-0.479-0.984
		c-0.319-0.184-0.895-0.285-1.728-0.304V0.722h7.75v0.467c-0.768,0.066-1.318,0.193-1.651,0.382
		c-0.574,0.312-0.976,0.896-1.207,1.754l-3.476,12.831l-0.263,1.105c-0.009,0.057-0.016,0.117-0.021,0.184
		c-0.005,0.066-0.007,0.123-0.007,0.17c0,0.236,0.074,0.422,0.222,0.559c0.148,0.138,0.379,0.239,0.694,0.305
		c0.259,0.048,0.615,0.08,1.069,0.1c0.268,0.01,0.717,0.014,1.346,0.014c1.934,0,3.404-0.262,4.413-0.785s1.934-1.701,2.776-3.533
		l0.555,0.17l-1.637,5.197h-14.502V19.173z"/>
	<path fill="#FFFFFF" d="M145.911,2.336c1.23,1.322,1.846,2.94,1.846,4.857c0,3.379-1.23,6.396-3.691,9.049
		c-2.424,2.596-5.111,3.894-8.062,3.894c-1.869,0-3.418-0.595-4.649-1.784s-1.845-2.884-1.845-5.083
		c0-3.125,1.216-6.056,3.649-8.793c2.442-2.747,5.079-4.121,7.91-4.121C143.066,0.354,144.681,1.015,145.911,2.336z M142.691,13.919
		c1.397-2.804,2.096-5.404,2.096-7.802c0-1.482-0.314-2.641-0.943-3.476c-0.63-0.836-1.578-1.253-2.845-1.253
		c-2.442,0-4.524,1.666-6.245,4.999c-1.452,2.804-2.179,5.508-2.179,8.114c0,1.529,0.329,2.686,0.985,3.469
		c0.657,0.784,1.573,1.176,2.748,1.176C138.834,19.145,140.962,17.402,142.691,13.919z"/>
	<path fill="#FFFFFF" d="M148.418,19.173c0.666-0.057,1.124-0.179,1.374-0.368c0.389-0.283,0.708-0.873,0.958-1.77l3.482-12.834
		c0.074-0.254,0.146-0.554,0.215-0.897c0.07-0.344,0.104-0.644,0.104-0.898c0-0.443-0.157-0.747-0.472-0.912
		s-0.823-0.267-1.526-0.304V0.722h7.043c1.353,0,2.478,0.17,3.376,0.51c1.704,0.651,2.557,1.855,2.557,3.612
		c0,1.681-0.741,2.983-2.225,3.909c-0.806,0.5-1.932,0.912-3.378,1.232l2.633,7.107c0.259,0.698,0.555,1.213,0.888,1.543
		s0.828,0.51,1.485,0.538v0.468h-4.205l-3.497-9.389l-1.854-0.142l-1.596,6.048c-0.07,0.254-0.132,0.494-0.188,0.721
		c-0.093,0.463-0.139,0.821-0.139,1.076c0,0.443,0.152,0.75,0.458,0.92c0.305,0.17,0.8,0.27,1.484,0.298v0.468h-6.979V19.173z
		 M156.924,9.14c0.147,0.015,0.309,0.021,0.484,0.021c1.431,0,2.643-0.337,3.635-1.01c0.992-0.674,1.488-1.812,1.488-3.414
		c0-1.215-0.339-2.04-1.017-2.473c-0.678-0.434-1.551-0.65-2.618-0.65c-0.381,0-0.678,0.047-0.892,0.142s-0.367,0.306-0.46,0.636
		l-1.812,6.628C156.379,9.086,156.775,9.126,156.924,9.14z"/>
	<path fill="#FFFFFF" d="M172.739,19.173c0.666-0.057,1.124-0.179,1.373-0.368c0.389-0.283,0.708-0.873,0.958-1.77l3.481-12.83
		c0.102-0.387,0.183-0.72,0.243-0.998c0.06-0.279,0.09-0.522,0.09-0.729c0-0.472-0.157-0.8-0.472-0.984
		c-0.314-0.184-0.893-0.285-1.734-0.304V0.722h7.342c1.359,0,2.554,0.123,3.58,0.368c1.027,0.246,1.98,0.75,2.859,1.515
		c0.62,0.566,1.138,1.237,1.555,2.011c0.61,1.17,0.916,2.487,0.916,3.951c0,2.908-1.097,5.428-3.289,7.562
		c-2.405,2.341-5.532,3.512-9.381,3.512h-7.521V19.173z M188.448,13.509c0.86-1.803,1.29-3.639,1.29-5.508
		c0-1.803-0.435-3.323-1.305-4.56s-2.438-1.855-4.706-1.855c-0.62,0-1.062,0.062-1.325,0.184c-0.265,0.123-0.438,0.34-0.521,0.651
		l-3.884,14.203c-0.074,0.283-0.12,0.491-0.139,0.623s-0.028,0.265-0.028,0.396c0,0.415,0.125,0.698,0.375,0.85
		s0.764,0.227,1.54,0.227C183.873,18.72,186.773,16.982,188.448,13.509z"/>
	<path fill="#FFFFFF" d="M193.315,19.173c0.666-0.057,1.124-0.179,1.374-0.368c0.389-0.283,0.708-0.873,0.958-1.77l3.481-12.83
		c0.111-0.425,0.196-0.776,0.257-1.055c0.061-0.279,0.09-0.517,0.09-0.715c0-0.453-0.169-0.77-0.506-0.949
		c-0.338-0.179-0.909-0.278-1.714-0.297V0.722h14.143L210.51,5.14l-0.583-0.042c0.028-0.283,0.047-0.555,0.056-0.814
		c0.009-0.26,0.014-0.356,0.014-0.291c0.019-0.954-0.312-1.579-0.992-1.876c-0.681-0.297-2.08-0.446-4.199-0.446
		c-0.972,0-1.583,0.046-1.833,0.139c-0.249,0.092-0.421,0.296-0.513,0.611l-1.848,6.755c2.498-0.085,4-0.246,4.507-0.481
		s1.046-1.015,1.617-2.336l0.527,0.127l-1.942,6.712l-0.556-0.127c0.093-0.566,0.148-0.911,0.167-1.034s0.027-0.26,0.027-0.411
		c0-0.614-0.214-1.013-0.643-1.196c-0.429-0.185-1.214-0.276-2.355-0.276h-1.616l-1.77,6.471c-0.056,0.198-0.1,0.382-0.132,0.552
		s-0.049,0.346-0.049,0.524c0,0.302,0.079,0.528,0.236,0.68c0.286,0.265,0.851,0.396,1.692,0.396c2.545,0,4.365-0.278,5.461-0.835
		c1.097-0.558,2.19-1.634,3.282-3.229l0.458,0.241l-1.776,4.688h-14.433V19.173z"/>
	<path fill="#FFFFFF" d="M212.044,19.173c0.666-0.057,1.124-0.179,1.374-0.368c0.389-0.283,0.708-0.873,0.958-1.77l3.481-12.83
		c0.087-0.32,0.154-0.571,0.2-0.75c0.093-0.434,0.139-0.755,0.139-0.963c0-0.491-0.154-0.826-0.465-1.005
		c-0.31-0.179-0.891-0.278-1.741-0.297V0.722h7.339c1.248,0,2.349,0.165,3.301,0.496c1.601,0.689,2.4,1.926,2.4,3.71
		c0,1.482-0.652,2.634-1.956,3.455c-0.713,0.444-1.702,0.807-2.97,1.09c0.98,0.377,1.716,0.793,2.206,1.246
		c0.879,0.821,1.318,1.935,1.318,3.342c0,1.585-0.689,2.912-2.068,3.979c-1.378,1.067-3.266,1.601-5.661,1.601h-7.855V19.173z
		 M223.229,17.219c0.87-1,1.305-2.204,1.305-3.611c0-1.567-0.508-2.591-1.524-3.073c-0.645-0.292-1.948-0.453-3.909-0.481
		l-1.797,6.57c-0.046,0.161-0.083,0.319-0.111,0.474c-0.027,0.156-0.041,0.301-0.041,0.433c0,0.519,0.235,0.864,0.708,1.034
		c0.268,0.104,0.688,0.155,1.263,0.155C220.99,18.72,222.359,18.219,223.229,17.219z M220.604,9.119c1.467,0,2.61-0.208,3.431-0.623
		c1.406-0.717,2.108-2.03,2.108-3.937c0-1.085-0.298-1.853-0.894-2.301c-0.597-0.448-1.38-0.672-2.35-0.672
		c-0.619,0-1.038,0.059-1.255,0.177c-0.218,0.118-0.367,0.328-0.45,0.63l-1.836,6.712L220.604,9.119z"/>
	<path fill="#FFFFFF" d="M234.438,4.206c0.102-0.359,0.176-0.651,0.223-0.878c0.073-0.368,0.11-0.675,0.11-0.92
		c0-0.491-0.176-0.807-0.527-0.949s-0.911-0.231-1.679-0.269V0.722h7.776v0.467c-0.777,0.066-1.332,0.193-1.665,0.382
		c-0.564,0.312-0.967,0.897-1.207,1.756l-2.129,7.735c-0.22,0.783-0.403,1.494-0.55,2.135c-0.25,1.048-0.375,1.803-0.375,2.266
		c0,1.453,0.61,2.479,1.83,3.072c0.637,0.312,1.302,0.468,1.995,0.468c1.662,0,2.977-0.517,3.942-1.55
		c0.965-1.035,1.729-2.632,2.293-4.794l2.204-8.652c0.102-0.387,0.171-0.689,0.208-0.906s0.056-0.406,0.056-0.566
		c0-0.538-0.222-0.906-0.666-1.104c-0.259-0.123-0.703-0.203-1.332-0.241V0.722h5.66v0.467c-0.842,0.179-1.413,0.479-1.714,0.899
		c-0.301,0.42-0.715,1.551-1.242,3.392l-1.982,7.307c-0.657,2.681-1.578,4.588-2.763,5.721c-1.193,1.133-2.867,1.699-5.023,1.699
		c-1.684,0-3.115-0.463-4.295-1.389c-1.18-0.925-1.77-2.114-1.77-3.568c0-0.472,0.079-1.111,0.237-1.918
		c0.157-0.807,0.376-1.725,0.654-2.754L234.438,4.206z"/>
	<path fill="#FFFFFF" d="M252.753,19.173c0.842-0.065,1.434-0.188,1.776-0.368c0.573-0.312,0.976-0.901,1.207-1.77l4.154-15.308
		c-2.18,0-3.621,0.167-4.323,0.502c-0.702,0.335-1.52,1.353-2.453,3.052l-0.499-0.099l1.18-4.46h15.153l-1.249,4.729l-0.5-0.071
		l0.069-1.005c0-0.887-0.196-1.551-0.591-1.989c-0.394-0.439-1.175-0.659-2.343-0.659h-1.585l-3.982,14.429
		c-0.092,0.312-0.161,0.59-0.207,0.836c-0.084,0.368-0.125,0.66-0.125,0.878c0,0.566,0.171,0.918,0.513,1.056
		c0.342,0.137,1.013,0.219,2.012,0.247v0.468h-8.207V19.173z"/>
	<path fill="#FFFFFF" d="M269.652,19.504c-0.305-0.318-0.458-0.699-0.458-1.145c0-0.446,0.155-0.826,0.465-1.139
		c0.311-0.312,0.683-0.469,1.117-0.469s0.808,0.156,1.117,0.469s0.465,0.692,0.465,1.139c0,0.445-0.152,0.826-0.458,1.145
		c-0.305,0.317-0.68,0.477-1.124,0.477S269.958,19.821,269.652,19.504z"/>
</g>
<g>
</g>
<g>
</g>
<g>
</g>
<g>
</g>
<g>
</g>
<g>
</g>
</svg>
